[{
    "selector": "body",
    "page": "other",
    "title": "Body",
    "variables": [{
        "name": "$src",
        "title": "Background",
        "type": "image",
        "data": ""
    }, {
        "name": "$bg_color",
        "title": "Background color",
        "type": "text",
        "data": "black"
    }],
    "attributes": {
        "background-image": "url('$src')",
        "background-color": "$bg_color"
    }
}, {
    "selector": "header .x-navbar-wrap .x-navbar.x-navbar-fixed-left",
    "page": "other",
    "title": "Left Menu",
    "variables": [{
        "name": "$src",
        "title": "Background img",
        "type": "image",
        "data": ""
    }, {
        "name": "$font_family",
        "title": "Font Family",
        "type": "select",
        "data": "arial",
        "data_available": [{
            "name": "Proximanova",
            "data": "proximanova"
        }, {
            "name": "Arial",
            "data": "arial"
        }, {
            "name": "Hevertical",
            "data": "hevertical"
        }, {
            "name": "Quicksand",
            "data": "Quicksand"
        }, {
            "name": "Lato",
            "data": "Lato"
        }]
    }, {
        "name": "$color",
        "title": "Background color",
        "type": "text",
        "data": ""
    }, {
        "name": "$font_size",
        "title": "Font size",
        "type": "text",
        "data": ""
    }],
    "attributes": {
        "background-image": "url('$src')",
        "background-color": "$color",
        "font-size": "$font_size",
        "font-family": "$font_family"
    }
}, {
    "selector": "body #top #home.x-main.full .hentry:first-child .entry-content #x-section-1",
    "page": "homepage",
    "title": "Open hour section",
    "variables": [{
        "name": "$src",
        "title": "Background img",
        "type": "image",
        "data": ""
    }, {
        "name": "$font_family",
        "title": "Font Family",
        "type": "select",
        "data": "arial",
        "data_available": [{
            "name": "Proximanova",
            "data": "proximanova"
        }, {
            "name": "Arial",
            "data": "arial"
        }, {
            "name": "Hevertical",
            "data": "hevertical"
        }, {
            "name": "Quicksand",
            "data": "Quicksand"
        }, {
            "name": "Lato",
            "data": "Lato"
        }]
    }, {
        "name": "$color",
        "title": "Background color",
        "type": "text",
        "data": ""
    }, {
        "name": "$font_size",
        "title": "Font size",
        "type": "text",
        "data": ""
    }],
    "attributes": {
        "background-image": "url('$src')",
        "background-color": "$color",
        "font-size": "$font_size",
        "font-family": "$font_family"
    }
}, {
    "selector": "body #top #home.x-main.full .hentry:first-child .entry-content #x-section-2",
    "page": "homepage",
    "title": "Call to action section",
    "variables": [{
        "name": "$src",
        "title": "Background img",
        "type": "image",
        "data": ""
    }, {
        "name": "$font_family",
        "title": "Font Family",
        "type": "select",
        "data": "arial",
        "data_available": [{
            "name": "Proximanova",
            "data": "proximanova"
        }, {
            "name": "Arial",
            "data": "arial"
        }, {
            "name": "Hevertical",
            "data": "hevertical"
        }, {
            "name": "Quicksand",
            "data": "Quicksand"
        }, {
            "name": "Lato",
            "data": "Lato"
        }]
    }, {
        "name": "$color",
        "title": "Background color",
        "type": "text",
        "data": ""
    }, {
        "name": "$font_size",
        "title": "Font size",
        "type": "text",
        "data": ""
    }],
    "attributes": {
        "background-image": "url('$src')",
        "background-color": "$color",
        "font-size": "$font_size",
        "font-family": "$font_family"
    }
}, {
    "selector": "body #top #home.x-main.full .hentry:first-child .entry-content #x-section-2 .x-container.max.width .x-column.x-sm.x-1-1 h1 span",
    "page": "homepage",
    "title": "Call to action section title",
    "variables": [{
        "name": "$font_family",
        "title": "Font Family",
        "type": "select",
        "data": "",
        "data_available": [{
            "name": "Proximanova",
            "data": "proximanova"
        }, {
            "name": "Arial",
            "data": "arial"
        }, {
            "name": "Hevertical",
            "data": "hevertical"
        }, {
            "name": "Quicksand",
            "data": "Quicksand"
        }, {
            "name": "Lato",
            "data": "Lato"
        }, {
            "name": "Default",
            "data": ""
        }]
    }, {
        "name": "$color",
        "title": "Color",
        "type": "text",
        "data": ""
    }, {
        "name": "$font_size",
        "title": "Font size",
        "type": "text",
        "data": ""
    }],
    "attributes": {
        "color": "$color",
        "font-size": "$font_size",
        "font-family": "$font_family"
    }
}, {
    "selector": "body #top #home.x-main.full .hentry:first-child .entry-content #x-section-2 .x-container.max.width .x-column.x-sm.x-1-1 a",
    "page": "homepage",
    "title": "Call to action section button",
    "variables": [{
        "name": "$font_family",
        "title": "Font Family",
        "type": "select",
        "data": "",
        "data_available": [{
            "name": "Proximanova",
            "data": "proximanova"
        }, {
            "name": "Arial",
            "data": "arial"
        }, {
            "name": "Hevertical",
            "data": "hevertical"
        }, {
            "name": "Quicksand",
            "data": "Quicksand"
        }, {
            "name": "Lato",
            "data": "Lato"
        }, {
            "name": "Default",
            "data": ""
        }]
    }, {
        "name": "$color",
        "title": "Color",
        "type": "text",
        "data": ""
    }, {
        "name": "$font_size",
        "title": "Font size",
        "type": "text",
        "data": ""
    }, {
        "name": "$border_color",
        "title": "Border Color",
        "type": "text",
        "data": ""
    }, {
        "name": "$bg_color",
        "title": "Background Color",
        "type": "text",
        "data": ""
    }, {
        "name": "$radius",
        "title": "Border Radius",
        "type": "text",
        "data": ""
    }, {
        "name": "$padding",
        "title": "Padding",
        "type": "text",
        "data": ""
    }],
    "attributes": {
        "color": "$color",
        "font-size": "$font_size",
        "font-family": "$font_family",
        "border-color": "$border_color!important",
        "background-color": "$bg_color",
        "border-radius": "$radius",
        "padding": "$padding"
    }
}, {
    "selector": "body #top #home.x-main.full .hentry:first-child .entry-content #x-section-2",
    "page": "homepage",
    "title": "Event section",
    "variables": [{
        "name": "$src",
        "title": "Background img",
        "type": "image",
        "data": ""
    }, {
        "name": "$font_family",
        "title": "Font Family",
        "type": "select",
        "data": "arial",
        "data_available": [{
            "name": "Proximanova",
            "data": "proximanova"
        }, {
            "name": "Arial",
            "data": "arial"
        }, {
            "name": "Hevertical",
            "data": "hevertical"
        }, {
            "name": "Quicksand",
            "data": "Quicksand"
        }, {
            "name": "Lato",
            "data": "Lato"
        }]
    }, {
        "name": "$color",
        "title": "Background color",
        "type": "text",
        "data": ""
    }, {
        "name": "$font_size",
        "title": "Font size",
        "type": "text",
        "data": ""
    }],
    "attributes": {
        "background-image": "url('$src')",
        "background-color": "$color",
        "font-size": "$font_size",
        "font-family": "$font_family"
    }
}, {
    "selector": "body #top #home.x-main.full .hentry:first-child .entry-content #x-section-5",
    "page": "homepage",
    "title": "Latest news",
    "variables": [{
        "name": "$src",
        "title": "Background img",
        "type": "image",
        "data": ""
    }, {
        "name": "$font_family",
        "title": "Font Family",
        "type": "select",
        "data": "arial",
        "data_available": [{
            "name": "Proximanova",
            "data": "proximanova"
        }, {
            "name": "Arial",
            "data": "arial"
        }, {
            "name": "Hevertical",
            "data": "hevertical"
        }, {
            "name": "Quicksand",
            "data": "Quicksand"
        }, {
            "name": "Lato",
            "data": "Lato"
        }]
    }, {
        "name": "$color",
        "title": "Background color",
        "type": "text",
        "data": ""
    }, {
        "name": "$font_size",
        "title": "Font size",
        "type": "text",
        "data": ""
    }],
    "attributes": {
        "background-image": "url('$src')",
        "background-color": "$color",
        "font-size": "$font_size",
        "font-family": "$font_family"
    }
}, {
    "selector": ".about .x-main.full article div.entry-content.content #x-section-1",
    "page": "about",
    "title": "header section",
    "variables": [{
        "name": "$src",
        "title": "Background img",
        "type": "image",
        "data": ""
    }, {
        "name": "$font_family",
        "title": "Font Family",
        "type": "select",
        "data": "arial",
        "data_available": [{
            "name": "Proximanova",
            "data": "proximanova"
        }, {
            "name": "Arial",
            "data": "arial"
        }, {
            "name": "Hevertical",
            "data": "hevertical"
        }, {
            "name": "Quicksand",
            "data": "Quicksand"
        }, {
            "name": "Lato",
            "data": "Lato"
        }]
    }, {
        "name": "$color",
        "title": "Background color",
        "type": "text",
        "data": ""
    }, {
        "name": "$font_size",
        "title": "Font size",
        "type": "text",
        "data": ""
    }],
    "attributes": {
        "background-image": "url('$src')",
        "background-color": "$color",
        "font-size": "$font_size",
        "font-family": "$font_family"
    }
}, {
    "selector": ".about .x-main.full article div.entry-content.content #x-section-2",
    "page": "about",
    "title": "About section",
    "variables": [{
        "name": "$src",
        "title": "Background img",
        "type": "image",
        "data": ""
    }, {
        "name": "$font_family",
        "title": "Font Family",
        "type": "select",
        "data": "arial",
        "data_available": [{
            "name": "Proximanova",
            "data": "proximanova"
        }, {
            "name": "Arial",
            "data": "arial"
        }, {
            "name": "Hevertical",
            "data": "hevertical"
        }, {
            "name": "Quicksand",
            "data": "Quicksand"
        }, {
            "name": "Lato",
            "data": "Lato"
        }]
    }, {
        "name": "$color",
        "title": "Background color",
        "type": "text",
        "data": ""
    }, {
        "name": "$font_size",
        "title": "Font size",
        "type": "text",
        "data": ""
    }],
    "attributes": {
        "background-image": "url('$src')",
        "background-color": "$color",
        "font-size": "$font_size",
        "font-family": "$font_family"
    }
}, {
    "selector": ".about .x-main.full article div.entry-content.content #x-section-4",
    "page": "about",
    "title": "Call to action section",
    "variables": [{
        "name": "$src",
        "title": "Background img",
        "type": "image",
        "data": ""
    }, {
        "name": "$font_family",
        "title": "Font Family",
        "type": "select",
        "data": "arial",
        "data_available": [{
            "name": "Proximanova",
            "data": "proximanova"
        }, {
            "name": "Arial",
            "data": "arial"
        }, {
            "name": "Hevertical",
            "data": "hevertical"
        }, {
            "name": "Quicksand",
            "data": "Quicksand"
        }, {
            "name": "Lato",
            "data": "Lato"
        }]
    }, {
        "name": "$color",
        "title": "Background color",
        "type": "text",
        "data": ""
    }, {
        "name": "$font_size",
        "title": "Font size",
        "type": "text",
        "data": ""
    }],
    "attributes": {
        "background-image": "url('$src')",
        "background-color": "$color",
        "font-size": "$font_size",
        "font-family": "$font_family"
    }
}, {
    "selector": ".book div.x-main.full article div.entry-content.content div#x-section-1",
    "page": "contact",
    "title": "Header section",
    "variables": [{
        "name": "$src",
        "title": "Background img",
        "type": "image",
        "data": ""
    }, {
        "name": "$font_family",
        "title": "Font Family",
        "type": "select",
        "data": "arial",
        "data_available": [{
            "name": "Proximanova",
            "data": "proximanova"
        }, {
            "name": "Arial",
            "data": "arial"
        }, {
            "name": "Hevertical",
            "data": "hevertical"
        }, {
            "name": "Quicksand",
            "data": "Quicksand"
        }, {
            "name": "Lato",
            "data": "Lato"
        }]
    }, {
        "name": "$color",
        "title": "Background color",
        "type": "text",
        "data": ""
    }, {
        "name": "$font_size",
        "title": "Font size",
        "type": "text",
        "data": ""
    }],
    "attributes": {
        "background-image": "url('$src')",
        "background-color": "$color",
        "font-size": "$font_size",
        "font-family": "$font_family"
    }
}, {
    "selector": ".book div.x-main.full article div.entry-content.content div#x-section-3",
    "page": "contact",
    "title": "Contact Descritpion",
    "variables": [{
        "name": "$src",
        "title": "Background img",
        "type": "image",
        "data": ""
    }, {
        "name": "$font_family",
        "title": "Font Family",
        "type": "select",
        "data": "arial",
        "data_available": [{
            "name": "Proximanova",
            "data": "proximanova"
        }, {
            "name": "Arial",
            "data": "arial"
        }, {
            "name": "Hevertical",
            "data": "hevertical"
        }, {
            "name": "Quicksand",
            "data": "Quicksand"
        }, {
            "name": "Lato",
            "data": "Lato"
        }]
    }, {
        "name": "$color",
        "title": "Background color",
        "type": "text",
        "data": ""
    }, {
        "name": "$font_size",
        "title": "Font size",
        "type": "text",
        "data": ""
    }],
    "attributes": {
        "background-image": "url('$src')",
        "background-color": "$color",
        "font-size": "$font_size",
        "font-family": "$font_family"
    }
}, {
    "selector": ".book div.x-main.full article div.entry-content.content div#x-section-3",
    "page": "contact",
    "title": "Contact Descritpion",
    "variables": [{
        "name": "$src",
        "title": "Background img",
        "type": "image",
        "data": ""
    }, {
        "name": "$font_family",
        "title": "Font Family",
        "type": "select",
        "data": "arial",
        "data_available": [{
            "name": "Proximanova",
            "data": "proximanova"
        }, {
            "name": "Arial",
            "data": "arial"
        }, {
            "name": "Hevertical",
            "data": "hevertical"
        }, {
            "name": "Quicksand",
            "data": "Quicksand"
        }, {
            "name": "Lato",
            "data": "Lato"
        }]
    }, {
        "name": "$color",
        "title": "Background color",
        "type": "text",
        "data": ""
    }, {
        "name": "$font_size",
        "title": "Font size",
        "type": "text",
        "data": ""
    }],
    "attributes": {
        "background-image": "url('$src')",
        "background-color": "$color",
        "font-size": "$font_size",
        "font-family": "$font_family"
    }
}, {
    "selector": ".menu-page .x-main.full article div.entry-content.content div#x-section-1",
    "page": "menu",
    "title": "Header section",
    "variables": [{
        "name": "$src",
        "title": "Background img",
        "type": "image",
        "data": ""
    }, {
        "name": "$font_family",
        "title": "Font Family",
        "type": "select",
        "data": "arial",
        "data_available": [{
            "name": "Proximanova",
            "data": "proximanova"
        }, {
            "name": "Arial",
            "data": "arial"
        }, {
            "name": "Hevertical",
            "data": "hevertical"
        }, {
            "name": "Quicksand",
            "data": "Quicksand"
        }, {
            "name": "Lato",
            "data": "Lato"
        }]
    }, {
        "name": "$color",
        "title": "Background color",
        "type": "text",
        "data": ""
    }, {
        "name": "$font_size",
        "title": "Font size",
        "type": "text",
        "data": ""
    }],
    "attributes": {
        "background-image": "url('$src')",
        "background-color": "$color",
        "font-size": "$font_size",
        "font-family": "$font_family"
    }
}, {
    "selector": ".menu-page .x-main.full article div.entry-content.content div#x-section-5",
    "page": "menu",
    "title": "Call to action section",
    "variables": [{
        "name": "$src",
        "title": "Background img",
        "type": "image",
        "data": ""
    }, {
        "name": "$font_family",
        "title": "Font Family",
        "type": "select",
        "data": "arial",
        "data_available": [{
            "name": "Proximanova",
            "data": "proximanova"
        }, {
            "name": "Arial",
            "data": "arial"
        }, {
            "name": "Hevertical",
            "data": "hevertical"
        }, {
            "name": "Quicksand",
            "data": "Quicksand"
        }, {
            "name": "Lato",
            "data": "Lato"
        }]
    }, {
        "name": "$color",
        "title": "Background color",
        "type": "text",
        "data": ""
    }, {
        "name": "$font_size",
        "title": "Font size",
        "type": "text",
        "data": ""
    }],
    "attributes": {
        "background-image": "url('$src')",
        "background-color": "$color",
        "font-size": "$font_size",
        "font-family": "$font_family"
    }
}, {
    "selector": ".gallery div.x-main.full article div.entry-content.content div#x-section-1",
    "page": "gallery",
    "title": "Header section",
    "variables": [{
        "name": "$src",
        "title": "Background img",
        "type": "image",
        "data": ""
    }, {
        "name": "$font_family",
        "title": "Font Family",
        "type": "select",
        "data": "arial",
        "data_available": [{
            "name": "Proximanova",
            "data": "proximanova"
        }, {
            "name": "Arial",
            "data": "arial"
        }, {
            "name": "Hevertical",
            "data": "hevertical"
        }, {
            "name": "Quicksand",
            "data": "Quicksand"
        }, {
            "name": "Lato",
            "data": "Lato"
        }]
    }, {
        "name": "$color",
        "title": "Background color",
        "type": "text",
        "data": ""
    }, {
        "name": "$font_size",
        "title": "Font size",
        "type": "text",
        "data": ""
    }],
    "attributes": {
        "background-image": "url('$src')",
        "background-color": "$color",
        "font-size": "$font_size",
        "font-family": "$font_family"
    }
}, {
    "selector": "div#chef",
    "page": "chef",
    "title": "About section",
    "variables": [{
        "name": "$src",
        "title": "Background img",
        "type": "image",
        "data": ""
    }, {
        "name": "$font_family",
        "title": "Font Family",
        "type": "select",
        "data": "arial",
        "data_available": [{
            "name": "Proximanova",
            "data": "proximanova"
        }, {
            "name": "Arial",
            "data": "arial"
        }, {
            "name": "Hevertical",
            "data": "hevertical"
        }, {
            "name": "Quicksand",
            "data": "Quicksand"
        }, {
            "name": "Lato",
            "data": "Lato"
        }]
    }, {
        "name": "$color",
        "title": "Background color",
        "type": "text",
        "data": ""
    }, {
        "name": "$font_size",
        "title": "Font size",
        "type": "text",
        "data": ""
    }],
    "attributes": {
        "background-image": "url('$src')",
        "background-color": "$color",
        "font-size": "$font_size",
        "font-family": "$font_family"
    }
}, {
    "selector": "#social",
    "page": "social",
    "title": "Header section",
    "variables": [{
        "name": "$src",
        "title": "Background img",
        "type": "image",
        "data": ""
    }, {
        "name": "$font_family",
        "title": "Font Family",
        "type": "select",
        "data": "arial",
        "data_available": [{
            "name": "Proximanova",
            "data": "proximanova"
        }, {
            "name": "Arial",
            "data": "arial"
        }, {
            "name": "Hevertical",
            "data": "hevertical"
        }, {
            "name": "Quicksand",
            "data": "Quicksand"
        }, {
            "name": "Lato",
            "data": "Lato"
        }]
    }, {
        "name": "$color",
        "title": "Background color",
        "type": "text",
        "data": ""
    }, {
        "name": "$font_size",
        "title": "Font size",
        "type": "text",
        "data": ""
    }],
    "attributes": {
        "background-image": "url('$src')",
        "background-color": "$color",
        "font-size": "$font_size",
        "font-family": "$font_family"
    }
}, {
    "selector": "footer",
    "page": "footer",
    "title": "Footer section",
    "variables": [{
        "name": "$src",
        "title": "Background img",
        "type": "image",
        "data": "http:\/\/bamboo.dev\/images\/customize\/2-anh-dep-mua-thu-lang-man-4.jpg"
    }, {
        "name": "$font_family",
        "title": "Font Family",
        "type": "select",
        "data": "arial",
        "data_available": [{
            "name": "Proximanova",
            "data": "proximanova"
        }, {
            "name": "Arial",
            "data": "arial"
        }, {
            "name": "Hevertical",
            "data": "hevertical"
        }, {
            "name": "Quicksand",
            "data": "Quicksand"
        }, {
            "name": "Lato",
            "data": "Lato"
        }]
    }, {
        "name": "$color",
        "title": "Background color",
        "type": "text",
        "data": ""
    }, {
        "name": "$font_size",
        "title": "Font size",
        "type": "text",
        "data": ""
    }],
    "attributes": {
        "background-image": "url('$src')",
        "background-color": "$color",
        "font-size": "$font_size",
        "font-family": "$font_family"
    }
}, {
    "selector": "footer .x-container.max.width .x-social-global a",
    "page": "social",
    "title": "Social Icons",
    "variables": [{
        "name": "$font_size",
        "title": "Font size",
        "type": "text",
        "data": ""
    }],
    "attributes": {
        "font_size": "$font_size"
    }
}, {
    "selector": "bookIframe",
    "page": "book",
    "title": "Book Now Page, do not use hexa color, ex: #333",
    "variables": [{
        "name": "$background",
        "title": "Background",
        "type": "text",
        "data": "transparent"
    }, {
        "name": "$panel_background",
        "title": "Panel Background",
        "type": "text",
        "data": "white"
    }],
    "attributes": {}
}]
